{
    "fluentMethods": true,
    "relationships": [
        {
            "relationshipName": "user",
            "otherEntityName": "user",
            "relationshipType": "many-to-one",
            "relationshipValidateRules": [
                "required"
            ],
            "otherEntityField": "firstName",
            "ownerSide": true
        },
        {
            "relationshipName": "restaurante",
            "otherEntityName": "restaurante",
            "relationshipType": "many-to-one",
            "relationshipValidateRules": [
                "required"
            ],
            "otherEntityField": "nome"
        }
    ],
    "fields": [
        {
            "fieldName": "dataVoto",
            "fieldType": "LocalDate",
            "fieldValidateRules": [
                "required"
            ]
        },
        {
            "fieldName": "tipoRefeicao",
            "fieldType": "TipoRefeicao",
            "fieldValues": "CAFE_MANHA, ALMOCO, CAFE_TARDE, JANTA",
            "fieldValidateRules": [
                "required"
            ]
        }
    ],
    "changelogDate": "20160920191730",
    "dto": "no",
    "service": "serviceClass",
    "entityTableName": "voto",
    "pagination": "pager"
}
